{
	"info": {
		"_postman_id": "ffe62434-b262-46a3-b0f1-094371cbf8e4",
		"name": "CP-Flex Claims API",
		"schema": "https://schema.getpostman.com/json/collection/v2.1.0/collection.json"
	},
	"item": [
		{
			"name": "Claim Device",
			"request": {
				"method": "POST",
				"header": [
					{
						"key": "{{FLEX_AUTHKEY_PARAM}}",
						"value": "{{FLEX_AUTHKEY}}",
						"type": "text"
					},
					{
						"key": "apikey",
						"value": "\"test\"",
						"type": "text",
						"disabled": true
					}
				],
				"body": {
					"mode": "raw",
					"raw": "{\n   \"claimkey\":\"1Q6Z-X0C24A-GFBW-P39X7BE6ZH9MXNQ3CD\",\n   \"acct\": \"2876b0b3-dcf4-4b5b-a168-823b6620a2c6\"\n}",
					"options": {
						"raw": {
							"language": "json"
						}
					}
				},
				"url": {
					"raw": "{{FLEX_CLAIMS_URL}}/registrar/claim",
					"host": [
						"{{FLEX_CLAIMS_URL}}"
					],
					"path": [
						"registrar",
						"claim"
					]
				},
				"description": "Adds a node"
			},
			"response": []
		},
		{
			"name": "Device Info (Claim Key)",
			"request": {
				"method": "POST",
				"header": [
					{
						"key": "apikey",
						"value": "\"test\"",
						"type": "text",
						"disabled": true
					},
					{
						"key": "{{FLEX_AUTHKEY_PARAM}}",
						"value": "{{FLEX_AUTHKEY}}",
						"type": "text"
					}
				],
				"body": {
					"mode": "raw",
					"raw": "{\n   \"acct\": \"{{ROOT_ACCT}}\",\n   \"key\": \"6390-77PRZA-EE9K-7FMWP6QRXC5JPGNBDX\"\n}",
					"options": {
						"raw": {
							"language": "json"
						}
					}
				},
				"url": {
					"raw": "{{FLEX_CLAIMS_URL}}/registrar/info",
					"host": [
						"{{FLEX_CLAIMS_URL}}"
					],
					"path": [
						"registrar",
						"info"
					]
				},
				"description": "Adds a node"
			},
			"response": []
		},
		{
			"name": "Device Check (Status)",
			"request": {
				"method": "POST",
				"header": [
					{
						"key": "apikey",
						"value": "\"test\"",
						"type": "text",
						"disabled": true
					},
					{
						"key": "{{FLEX_AUTHKEY_PARAM}}",
						"value": "{{FLEX_AUTHKEY}}",
						"type": "text"
					}
				],
				"body": {
					"mode": "raw",
					"raw": "{\n   \"claimkeys\": [\"6G7M-X1WGEP-0DW2-TTARQMT29PFD14ZQP6\"]\n}\n",
					"options": {
						"raw": {
							"language": "json"
						}
					}
				},
				"url": {
					"raw": "{{FLEX_CLAIMS_URL}}/registrar/check",
					"host": [
						"{{FLEX_CLAIMS_URL}}"
					],
					"path": [
						"registrar",
						"check"
					]
				},
				"description": "Adds a node"
			},
			"response": []
		},
		{
			"name": "Device List (Summary)",
			"request": {
				"method": "POST",
				"header": [
					{
						"key": "{{FLEX_AUTHKEY_PARAM}}",
						"value": "{{FLEX_AUTHKEY}}",
						"type": "text"
					},
					{
						"key": "apikey",
						"value": "\"test\"",
						"type": "text",
						"disabled": true
					}
				],
				"body": {
					"mode": "raw",
					"raw": "{\n   \"acct\": \"//resellers/codepoint/test/mathewstest\",\n    \"verbose\" : false\n}",
					"options": {
						"raw": {
							"language": "json"
						}
					}
				},
				"url": {
					"raw": "{{FLEX_CLAIMS_URL}}/registrar/list",
					"host": [
						"{{FLEX_CLAIMS_URL}}"
					],
					"path": [
						"registrar",
						"list"
					]
				},
				"description": "Adds a node"
			},
			"response": []
		},
		{
			"name": "Claim Move",
			"request": {
				"method": "POST",
				"header": [
					{
						"key": "{{FLEX_AUTHKEY_PARAM}}",
						"value": "{{FLEX_AUTHKEY}}",
						"type": "text"
					},
					{
						"key": "apikey",
						"value": "\"test\"",
						"type": "text",
						"disabled": true
					}
				],
				"body": {
					"mode": "raw",
					"raw": "{\n   \"acct\": \"//resellers/codepoint/test/mathewstest\",\n   \"acctTarget\": \"//resellers/codepoint/test/mathewstest\",\n   \"acckey\": \"[ACCKEY]\",\n   \"claimkeys\" : [\n       \"178V-9J1Z6Y-2BYT-A407AJ2CKYVWVPX64V\"\n   ]\n}",
					"options": {
						"raw": {
							"language": "json"
						}
					}
				},
				"url": {
					"raw": "{{FLEX_CLAIMS_URL}}/registrar/move",
					"host": [
						"{{FLEX_CLAIMS_URL}}"
					],
					"path": [
						"registrar",
						"move"
					]
				},
				"description": "Adds a node"
			},
			"response": []
		},
		{
			"name": "Device List (Detailed)",
			"request": {
				"method": "POST",
				"header": [
					{
						"key": "{{FLEX_AUTHKEY_PARAM}}",
						"value": "{{FLEX_AUTHKEY}}",
						"type": "text"
					},
					{
						"key": "apikey",
						"value": "\"test\"",
						"type": "text",
						"disabled": true
					}
				],
				"body": {
					"mode": "raw",
					"raw": "{\n   \"acct\": \"21602f89-eea3-43f6-9768-3ff243b9ee7f\",\n   \"verbose\" : true,\n    \"paging\": {\n        \"pageIndex\": -1,\n        \"pageSize\": 20\n    }\n}",
					"options": {
						"raw": {
							"language": "json"
						}
					}
				},
				"url": {
					"raw": "{{FLEX_CLAIMS_URL}}/registrar/list",
					"host": [
						"{{FLEX_CLAIMS_URL}}"
					],
					"path": [
						"registrar",
						"list"
					]
				},
				"description": "Adds a node"
			},
			"response": []
		},
		{
			"name": "Device Info (Serial Number w/parent)",
			"request": {
				"method": "POST",
				"header": [
					{
						"key": "{{FLEX_AUTHKEY_PARAM}}",
						"value": "{{FLEX_AUTHKEY}}",
						"type": "text"
					},
					{
						"key": "apikey",
						"value": "\"test\"",
						"type": "text",
						"disabled": true
					}
				],
				"body": {
					"mode": "raw",
					"raw": "{\n   \"key\":\"6G7M-X1WGEP-0DW2-TTARQMT29PFD14ZQP6\",\n   \"acct\": \"6397acf9-4eca-42da-9d51-dcb5ec0d4f26\"\n}",
					"options": {
						"raw": {
							"language": "json"
						}
					}
				},
				"url": {
					"raw": "{{FLEX_CLAIMS_URL}}/registrar/info",
					"host": [
						"{{FLEX_CLAIMS_URL}}"
					],
					"path": [
						"registrar",
						"info"
					]
				},
				"description": "Adds a node"
			},
			"response": []
		},
		{
			"name": "Count Account Claims",
			"request": {
				"method": "POST",
				"header": [
					{
						"key": "{{FLEX_AUTHKEY_PARAM}}",
						"value": "{{FLEX_AUTHKEY}}",
						"type": "text"
					},
					{
						"key": "apikey",
						"value": "\"test\"",
						"type": "text",
						"disabled": true
					}
				],
				"body": {
					"mode": "raw",
					"raw": "{\n   \"acct\": \"//resellers/codepoint\"\n}",
					"options": {
						"raw": {
							"language": "json"
						}
					}
				},
				"url": {
					"raw": "{{FLEX_CLAIMS_URL}}/registrar/count",
					"host": [
						"{{FLEX_CLAIMS_URL}}"
					],
					"path": [
						"registrar",
						"count"
					]
				},
				"description": "Adds a node"
			},
			"response": []
		},
		{
			"name": "Device Info (Serial Number w/impersonation)",
			"request": {
				"method": "POST",
				"header": [
					{
						"key": "{{FLEX_AUTHKEY_PARAM}}",
						"value": "{{FLEX_AUTHKEY}}",
						"type": "text"
					},
					{
						"key": "apikey",
						"value": "\"test\"",
						"type": "text"
					}
				],
				"body": {
					"mode": "raw",
					"raw": "{\n   \"key\":\"6G7M-X1WGEP-0DW2-TTARQMT29PFD14ZQP6\",\n   \"acct\": \"//resellers/codepoint/\"\n}",
					"options": {
						"raw": {
							"language": "json"
						}
					}
				},
				"url": {
					"raw": "{{FLEX_CLAIMS_URL}}/claims/info",
					"host": [
						"{{FLEX_CLAIMS_URL}}"
					],
					"path": [
						"claims",
						"info"
					]
				},
				"description": "Adds a node"
			},
			"response": []
		}
	]
}