{
	"info": {
		"_postman_id": "eb5931dd-75cf-48ff-930a-b8ea05afcff8",
		"name": "CP-Flex Hub API (master)",
		"description": "Test collection to exercise the CPFlex-PkgRepo APIs.",
		"schema": "https://schema.getpostman.com/json/collection/v2.1.0/collection.json"
	},
	"item": [
		{
			"name": "repo",
			"item": [
				{
					"name": "Tags-Remove",
					"request": {
						"method": "POST",
						"header": [
							{
								"key": "{{FLEX_AUTHKEY_PARAM}}",
								"value": "{{FLEX_AUTHKEY}}",
								"type": "text"
							}
						],
						"body": {
							"mode": "raw",
							"raw": "{\n\t\"etid\": \"Test tags-get\",\n\t\"taguri\": \"/nali/fw1:v1.0.2.1\"\n}",
							"options": {
								"raw": {
									"language": "json"
								}
							}
						},
						"url": {
							"raw": "{{FLEX_REPO}}/tags/remove",
							"host": [
								"{{FLEX_REPO}}"
							],
							"path": [
								"tags",
								"remove"
							]
						},
						"description": "Adds a node"
					},
					"response": []
				},
				{
					"name": "Tags-Get",
					"request": {
						"method": "POST",
						"header": [
							{
								"key": "{{FLEX_AUTHKEY_PARAM}}",
								"value": "{{FLEX_AUTHKEY}}",
								"type": "text"
							}
						],
						"body": {
							"mode": "raw",
							"raw": "{\n\t\"etid\": \"Test tags-get\",\n\t\"taguri\": \"//hub.cpflex.tech/nali/applications/ped_trackr:latest\"\n}",
							"options": {
								"raw": {
									"language": "json"
								}
							}
						},
						"url": {
							"raw": "{{FLEX_REPO}}/tags/get",
							"host": [
								"{{FLEX_REPO}}"
							],
							"path": [
								"tags",
								"get"
							]
						},
						"description": "Adds a node"
					},
					"response": []
				},
				{
					"name": "Add Node (image nodetype)",
					"request": {
						"method": "POST",
						"header": [
							{
								"key": "{{FLEX_AUTHKEY_PARAM}}",
								"value": "{{FLEX_AUTHKEY}}",
								"type": "text"
							}
						],
						"body": {
							"mode": "raw",
							"raw": "{\n\t\"etid\":\"Test node-add\",\n\t\"nodetype\":\"image\",\n\t\"nodeuri\":\"/nali/n100/revc-default\",\n\t\"visibility\":1\n\n}",
							"options": {
								"raw": {
									"language": "json"
								}
							}
						},
						"url": {
							"raw": "{{FLEX_REPO}}/nodes/add",
							"host": [
								"{{FLEX_REPO}}"
							],
							"path": [
								"nodes",
								"add"
							]
						},
						"description": "Adds a node"
					},
					"response": []
				},
				{
					"name": "Add Node (container nodetype)",
					"request": {
						"method": "POST",
						"header": [
							{
								"key": "{{FLEX_AUTHKEY_PARAM}}",
								"value": "{{FLEX_AUTHKEY}}",
								"type": "text"
							}
						],
						"body": {
							"mode": "raw",
							"raw": "{\n\t\"etid\":\"Test node-add\",\n\t\"nodetype\":\"package\",\n\t\"nodeuri\":\"nali/applications/perf_test\",\n\t\"attributes\" : {},\n\t\"visibility\":1\n}",
							"options": {
								"raw": {
									"language": "json"
								}
							}
						},
						"url": {
							"raw": "{{FLEX_REPO}}/nodes/add",
							"host": [
								"{{FLEX_REPO}}"
							],
							"path": [
								"nodes",
								"add"
							]
						},
						"description": "Adds a node"
					},
					"response": []
				},
				{
					"name": "List Node (//hub.cpflex.tech)",
					"request": {
						"method": "POST",
						"header": [
							{
								"key": "{{FLEX_AUTHKEY_PARAM}}",
								"value": "{{FLEX_AUTHKEY}}",
								"type": "text"
							}
						],
						"body": {
							"mode": "raw",
							"raw": "{\n\t\"etid\":\"Test node-list\",\n\t\"nodeuri\":\"//hub.cpflex.tech/emworks/apps\"\n}",
							"options": {
								"raw": {
									"language": "json"
								}
							}
						},
						"url": {
							"raw": "{{FLEX_REPO}}/nodes/list",
							"host": [
								"{{FLEX_REPO}}"
							],
							"path": [
								"nodes",
								"list"
							]
						},
						"description": "List the test nodes."
					},
					"response": []
				},
				{
					"name": "Node-Update",
					"request": {
						"method": "POST",
						"header": [
							{
								"key": "{{FLEX_AUTHKEY_PARAM}}",
								"type": "text",
								"value": "{{FLEX_AUTHKEY}}"
							}
						],
						"body": {
							"mode": "raw",
							"raw": "{\n  \"etid\": \"cphub-node/update\",\n  \"nodeuri\": \"emworks/apps/asset-tracker\",\n  \"label\": \"EW Asset Tracker\"\n  \n  \n}",
							"options": {
								"raw": {
									"language": "json"
								}
							}
						},
						"url": {
							"raw": "{{FLEX_REPO}}/nodes/update",
							"host": [
								"{{FLEX_REPO}}"
							],
							"path": [
								"nodes",
								"update"
							]
						},
						"description": "Adds a node"
					},
					"response": []
				},
				{
					"name": "Get Node (image1)",
					"request": {
						"method": "POST",
						"header": [
							{
								"key": "{{FLEX_AUTHKEY_PARAM}}",
								"value": "{{FLEX_AUTHKEY}}",
								"type": "text"
							}
						],
						"body": {
							"mode": "raw",
							"raw": "{\n\t\"etid\":\"Test node-get\",\n\t\"nodeuri\":\"//hub.cpflex.tech/emworks/apps/asset-tracker\",\n    \"verbose\": true\n}",
							"options": {
								"raw": {
									"language": "json"
								}
							}
						},
						"url": {
							"raw": "{{FLEX_REPO}}/nodes/get",
							"host": [
								"{{FLEX_REPO}}"
							],
							"path": [
								"nodes",
								"get"
							]
						},
						"description": "List the test nodes."
					},
					"response": []
				},
				{
					"name": "Remove Node",
					"request": {
						"method": "POST",
						"header": [
							{
								"key": "{{FLEX_AUTHKEY_PARAM}}",
								"value": "{{FLEX_AUTHKEY}}",
								"type": "text"
							}
						],
						"body": {
							"mode": "raw",
							"raw": "{\n\t\"etid\":\"Test node-list\",\n\t\"nodeuri\":\"/nali/applications/ped_tracker_api\"\n}",
							"options": {
								"raw": {
									"language": "json"
								}
							}
						},
						"url": {
							"raw": "{{FLEX_REPO}}/nodes/remove",
							"host": [
								"{{FLEX_REPO}}"
							],
							"path": [
								"nodes",
								"remove"
							]
						},
						"description": "List the test nodes."
					},
					"response": []
				},
				{
					"name": "Images-Push",
					"request": {
						"method": "POST",
						"header": [
							{
								"key": "{{FLEX_AUTHKEY_PARAM}}",
								"value": "{{FLEX_AUTHKEY}}",
								"type": "text"
							}
						],
						"body": {
							"mode": "raw",
							"raw": "{\n\t\"etid\": \"Test images-push\",\n\t\"taguri\": \"/nali/fw1:v1.0.2.1\",\n\t\"images\": [\n\t\t{\n\t\t\t\"imagetype\": \"application/x-opl-bin\",\n\t\t\t\"image\": \"AYKU6kgsywEO/OzahM56NxmRgiF1NkQCBggxAQAAAAMlQAIEQEEJQQEFQwRuFAAAQQlB\"\n\t\t}\n\t],\n\t\"description\": \"1) Implemented selectable scanning functions (BLE, WiFi, coarse, medium, precise.\",\n\t\"attributes\": {\n\t},\n\t\"references\" : [\n\t],\n\t\"constraints\" : [\n\t\t\"\"\n\t]\n}",
							"options": {
								"raw": {
									"language": "json"
								}
							}
						},
						"url": {
							"raw": "{{FLEX_REPO}}/images/push",
							"host": [
								"{{FLEX_REPO}}"
							],
							"path": [
								"images",
								"push"
							]
						},
						"description": "Adds a node"
					},
					"response": []
				},
				{
					"name": "Images-Pull (taguri)",
					"request": {
						"method": "POST",
						"header": [
							{
								"key": "{{FLEX_AUTHKEY_PARAM}}",
								"value": "{{FLEX_AUTHKEY}}",
								"type": "text"
							}
						],
						"body": {
							"mode": "raw",
							"raw": "{\n\t\"etid\": \"Test images-pull\",\n\t\"taguri\": \"//hub.cpflex.tech/firmware/nali/n100/targets/r3/stm/bootloader:v1.0.0.0\"\n}",
							"options": {
								"raw": {
									"language": "json"
								}
							}
						},
						"url": {
							"raw": "{{FLEX_REPO}}/images/pull",
							"host": [
								"{{FLEX_REPO}}"
							],
							"path": [
								"images",
								"pull"
							]
						},
						"description": "Adds a node"
					},
					"response": []
				},
				{
					"name": "Images-Pull (imageid)",
					"request": {
						"method": "POST",
						"header": [
							{
								"key": "{{FLEX_AUTHKEY_PARAM}}",
								"value": "{{FLEX_AUTHKEY}}",
								"type": "text",
								"disabled": true
							}
						],
						"body": {
							"mode": "raw",
							"raw": "{\n\t\"etid\": \"Test images-pull\",\n\t\"imageuri\": \"THTjBi7USqGuwdKrHwKzPg/cpflexapp\"\n}",
							"options": {
								"raw": {
									"language": "json"
								}
							}
						},
						"url": {
							"raw": "{{FLEX_REPO}}/images/pull",
							"host": [
								"{{FLEX_REPO}}"
							],
							"path": [
								"images",
								"pull"
							]
						},
						"description": "Adds a node"
					},
					"response": []
				},
				{
					"name": "Tags-Resolve",
					"request": {
						"method": "POST",
						"header": [
							{
								"key": "{{FLEX_AUTHKEY_PARAM}}",
								"value": "{{FLEX_AUTHKEY}}",
								"type": "text"
							}
						],
						"body": {
							"mode": "raw",
							"raw": "{\n\t\"etid\": \"Test tags-resolve\",\n\t\"taguri\": \"nali/applications/ped_tracker:v2.0.0.0a\",\n    \"bForceInclude\" : true,\n    \"filters\" : [\n        {\n            \"id\": 0,\n            \"attributes\" : {},\n            \"bRequireImage\": true,\n            \"constraints\":[\n                \"class://hub.cpflex.tech/classes/firmware/n100:1\"\n            ]\n        },\n        {\n            \"id\": 1,\n            \"attributes\" : {},    \n            \"bRequireImage\": true,        \n            \"constraints\":[\n                \"class://hub.cpflex.tech/classes/firmware/n100:0\"\n            ]\n        },\n        {\n            \"id\": 2,\n            \"attributes\" : {\n                \"frequency\": \"868MHZ\"\n            },\n            \"bRequireImage\": true,\n            \"constraints\":[\n                \"class://hub.cpflex.tech/classes/firmware/n100:2\"\n            ]\n        },\n        {\n            \"id\": 3,\n            \"attributes\" : {\n            },\n            \"bRequireImage\": true,\n            \"constraints\":[\n                \"class://hub.cpflex.tech/classes/cpflex/application:v1\"\n            ]\n        }\n    ]\n}",
							"options": {
								"raw": {
									"language": "json"
								}
							}
						},
						"url": {
							"raw": "{{FLEX_REPO}}/tags/resolve",
							"host": [
								"{{FLEX_REPO}}"
							],
							"path": [
								"tags",
								"resolve"
							]
						},
						"description": "Adds a node"
					},
					"response": []
				},
				{
					"name": "Tags-Resolve Copy",
					"request": {
						"method": "POST",
						"header": [
							{
								"key": "{{FLEX_AUTHKEY_PARAM}}",
								"value": "{{FLEX_AUTHKEY}}",
								"type": "text"
							}
						],
						"body": {
							"mode": "raw",
							"raw": "{\n\t\"etid\": \"Test tags-resolve\",\n\t\"taguri\": \"nali/applications/ped_tracker:latest\",\n    \"bForceInclude\" : true,\n    \"filters\" : [\n\n        {\n            \"id\": 2,\n            \"attributes\" : {\n                \"frequency\": \"915MHZ\"\n            },\n            \"bRequireImage\": true,\n            \"constraints\":[\n                \"class://hub.cpflex.tech/classes/firmware/n100:2\"\n            ]\n        }\n    ]\n}",
							"options": {
								"raw": {
									"language": "json"
								}
							}
						},
						"url": {
							"raw": "{{FLEX_REPO}}/tags/resolve",
							"host": [
								"{{FLEX_REPO}}"
							],
							"path": [
								"tags",
								"resolve"
							]
						},
						"description": "Adds a node"
					},
					"response": []
				},
				{
					"name": "Tags-Update",
					"request": {
						"method": "POST",
						"header": [
							{
								"key": "{{FLEX_AUTHKEY_PARAM}}",
								"value": "{{FLEX_AUTHKEY}}",
								"type": "text"
							}
						],
						"body": {
							"mode": "raw",
							"raw": "{\n  \"attributes\": {},\n  \"constraints\": [\n    \"device-type:/device-type/nali/n100/v1:rev3\",\n    \"device-type:/device-type/nali/n100/v2:rev3\"\n  ],\n  \"description\": \"Nali-N100 Complete Firmware Bundle\",\n  \"references\": [\n    \"//hub.cpflex.tech/firmware/nali/n100/targets/r3/opl_1000:v0.8.3.6_a\",\n    \"//hub.cpflex.tech/firmware/nali/n100/targets/r3/stm/CN470:v0.9.6.0_a\",\n    \"//hub.cpflex.tech/firmware/nali/n100/targets/r3/stm/CN470_TENCENT:v0.9.6.0_a\",\n    \"//hub.cpflex.tech/firmware/nali/n100/targets/r3/stm/EU868:v0.9.6.0_a\",\n    \"//hub.cpflex.tech/firmware/nali/n100/targets/r3/stm/US915:v0.9.6.0_a\",\n    \"//hub.cpflex.tech/firmware/nali/n100/targets/r3/stm/bootloader:v1.0.0.0\"\n  ],\n  \"etid\": \"cphub-copy\",\n  \"taguri\": \"/firmware/nali/n100/bundle:v0.10.1.5_a\",\n  \"state\": 0\n}",
							"options": {
								"raw": {
									"language": "json"
								}
							}
						},
						"url": {
							"raw": "{{FLEX_REPO}}/tags/update",
							"host": [
								"{{FLEX_REPO}}"
							],
							"path": [
								"tags",
								"update"
							]
						},
						"description": "Adds a node"
					},
					"response": []
				},
				{
					"name": "Tags-List",
					"request": {
						"method": "POST",
						"header": [
							{
								"key": "{{FLEX_AUTHKEY_PARAM}}",
								"value": "{{FLEX_AUTHKEY}}",
								"type": "text"
							}
						],
						"body": {
							"mode": "raw",
							"raw": "{\n\t\"etid\": \"Test tags-get\",\n\t\"nodeuri\": \"//hub.cpflex.tech/emworks/apps/asset-tracker\",\n    \"deprecated\": true\n\n}",
							"options": {
								"raw": {
									"language": "json"
								}
							}
						},
						"url": {
							"raw": "{{FLEX_REPO}}/tags/list",
							"host": [
								"{{FLEX_REPO}}"
							],
							"path": [
								"tags",
								"list"
							]
						},
						"description": "Adds a node"
					},
					"response": []
				},
				{
					"name": "Constraints-Search",
					"request": {
						"method": "POST",
						"header": [
							{
								"key": "{{FLEX_AUTHKEY_PARAM}}",
								"value": "{{FLEX_AUTHKEY}}",
								"type": "text"
							}
						],
						"body": {
							"mode": "raw",
							"raw": "{\n\t\"etid\": \"Test tags-get\",\n\t\"constraint\": \"class://hub.cpflex.tech/classes/cpflex/application:v1\",\n\t\"tagsearch\" : true,\n\t\"scope\" : \"public\",\n\t\"limit\" : -1,\n    \"statemin\": 0,\n    \"statemax\": 0,\n\t\"pagingIndex\" : -1,\n\t\"pagingSize\" : -1,\n\t\"pagingState\" :[]\n}",
							"options": {
								"raw": {
									"language": "json"
								}
							}
						},
						"url": {
							"raw": "{{FLEX_REPO}}/constraints/search",
							"host": [
								"{{FLEX_REPO}}"
							],
							"path": [
								"constraints",
								"search"
							]
						},
						"description": "Adds a node"
					},
					"response": []
				}
			]
		},
		{
			"name": "production",
			"item": [
				{
					"name": "Create Device",
					"request": {
						"method": "POST",
						"header": [
							{
								"key": "{{FLEX_AUTHKEY_PARAM}}",
								"value": "{{FLEX_AUTHKEY}}",
								"type": "text"
							}
						],
						"body": {
							"mode": "raw",
							"raw": "{\n\t\"etid\":\"Test-product-create\",\n\t\"sku\":\"Test-CS1040-UL-US9HT-00\",\n\t\"identities\": [\n        { \n            \"key\": \"chipuuid\",\n            \"value\":\"124345356553121232\"\n        },\n        { \n            \"key\": \"appkey\",\n            \"value\":\"26C429E332A1427B1B16D1F5C3540B68\"\n        }        \n    ]\n\n}",
							"options": {
								"raw": {
									"language": "json"
								}
							}
						},
						"url": {
							"raw": "{{FLEX_REPO}}/production/device/create",
							"host": [
								"{{FLEX_REPO}}"
							],
							"path": [
								"production",
								"device",
								"create"
							]
						},
						"description": "Adds a node"
					},
					"response": []
				},
				{
					"name": "UpdateIdentities",
					"request": {
						"method": "POST",
						"header": [
							{
								"key": "{{FLEX_AUTHKEY_PARAM}}",
								"value": "{{FLEX_AUTHKEY}}",
								"type": "text"
							}
						],
						"body": {
							"mode": "raw",
							"raw": "{\n\t\"etid\":\"Test-product-create\",\n    \"devuuid\" : \"f357457a-fdc5-4dd0-afd6-8a7f77d4cca1\",\n\t\"identities\": [\n        { \n            \"key\": \"appkey\",\n            \"value\":\"6AEA8F2261BF81564A4972213E12EE27\"\n        },\n                { \n            \"key\": \"devuuid\",\n            \"value\":\"124345352553121232\"\n        }\n    ]\n}",
							"options": {
								"raw": {
									"language": "json"
								}
							}
						},
						"url": {
							"raw": "{{FLEX_REPO}}/production/device/update-identities",
							"host": [
								"{{FLEX_REPO}}"
							],
							"path": [
								"production",
								"device",
								"update-identities"
							]
						},
						"description": "Adds a node"
					},
					"response": []
				},
				{
					"name": "UpdateIdentities-Claim Key",
					"request": {
						"method": "POST",
						"header": [
							{
								"key": "{{FLEX_AUTHKEY_PARAM}}",
								"value": "{{FLEX_AUTHKEY}}",
								"type": "text"
							}
						],
						"body": {
							"mode": "raw",
							"raw": "{\n\t\"etid\":\"Test-product-create\",\n    \"devuuid\" : \"8dedc322-2896-4e93-be4d-2a23af5a4536\",\n    \"claimkey\":\"49R7-HS2XMK-CEAV-4DJBHT66XE94N227ER\"\n}",
							"options": {
								"raw": {
									"language": "json"
								}
							}
						},
						"url": {
							"raw": "{{FLEX_REPO}}/production/device/update-identities",
							"host": [
								"{{FLEX_REPO}}"
							],
							"path": [
								"production",
								"device",
								"update-identities"
							]
						},
						"description": "Adds a node"
					},
					"response": []
				},
				{
					"name": "UpdatePackage",
					"request": {
						"method": "POST",
						"header": [
							{
								"key": "{{FLEX_AUTHKEY_PARAM}}",
								"value": "{{FLEX_AUTHKEY}}",
								"type": "text"
							}
						],
						"body": {
							"mode": "raw",
							"raw": "{\n\t\"etid\":\"Test-product-create\",\n    \"devuuid\" : \"0f601ca3-d1db-41a6-b0c0-deb00cffe50b\",\n\t\"uripackage\": \"MyPackage\",\n    \"urifirmware\" : \"MyFirmware\"\n}",
							"options": {
								"raw": {
									"language": "json"
								}
							}
						},
						"url": {
							"raw": "{{FLEX_REPO}}/production/device/update-package",
							"host": [
								"{{FLEX_REPO}}"
							],
							"path": [
								"production",
								"device",
								"update-package"
							]
						},
						"description": "Adds a node"
					},
					"response": []
				},
				{
					"name": "UpdateState",
					"request": {
						"method": "POST",
						"header": [
							{
								"key": "{{FLEX_AUTHKEY_PARAM}}",
								"value": "{{FLEX_AUTHKEY}}",
								"type": "text"
							}
						],
						"body": {
							"mode": "raw",
							"raw": "{\n\t\"etid\":\"Test-product-create\",\n    \"devuuid\" : \"adc058e6-d0d5-497c-947d-f81d06f61b26\",\n    \"status\":\"success\",\n    \"state\": \"commissioned\",\n    \"msg\":\"Marked as commissioned for retesting.\"\n}",
							"options": {
								"raw": {
									"language": "json"
								}
							}
						},
						"url": {
							"raw": "{{FLEX_REPO}}/production/device/update",
							"host": [
								"{{FLEX_REPO}}"
							],
							"path": [
								"production",
								"device",
								"update"
							]
						},
						"description": "Adds a node"
					},
					"response": []
				},
				{
					"name": "InsertStatusMsg",
					"request": {
						"method": "POST",
						"header": [
							{
								"key": "{{FLEX_AUTHKEY_PARAM}}",
								"value": "{{FLEX_AUTHKEY}}",
								"type": "text"
							}
						],
						"body": {
							"mode": "raw",
							"raw": "{\n\t\"etid\":\"Test-Insert-Status\",\n    \"devuuid\" : \"adcbe069-f1d0-43db-90a0-2a2806d7f9fb\",\n    \"status\":\"State Final\",\n    \"msg\":\" M.B. Mathews - Manually marked the state as final since unable to send test messages due to unknown configuration state.  Place device into hibernation manually after verifying acellerometer was working.\"\n}",
							"options": {
								"raw": {
									"language": "json"
								}
							}
						},
						"url": {
							"raw": "{{FLEX_REPO}}/production/device/update",
							"host": [
								"{{FLEX_REPO}}"
							],
							"path": [
								"production",
								"device",
								"update"
							]
						},
						"description": "Adds a node"
					},
					"response": []
				},
				{
					"name": "GetDevice",
					"request": {
						"method": "POST",
						"header": [
							{
								"key": "{{FLEX_AUTHKEY_PARAM}}",
								"value": "{{FLEX_AUTHKEY}}",
								"type": "text"
							}
						],
						"body": {
							"mode": "raw",
							"raw": "{\n\t\"etid\":\"Test-product-GetDevice\",\n    \"devuuid\" : \"6fd789a0-e593-41e8-8e10-1169a4bd47cb\",\n    \"includeledger\": true\n}",
							"options": {
								"raw": {
									"language": "json"
								}
							}
						},
						"url": {
							"raw": "{{FLEX_REPO}}/production/device/ledger",
							"host": [
								"{{FLEX_REPO}}"
							],
							"path": [
								"production",
								"device",
								"ledger"
							]
						},
						"description": "Adds a node"
					},
					"response": []
				},
				{
					"name": "Reauthorize",
					"request": {
						"method": "POST",
						"header": [
							{
								"key": "{{FLEX_AUTHKEY_PARAM}}",
								"value": "{{FLEX_AUTHKEY}}",
								"type": "text"
							}
						],
						"body": {
							"mode": "raw",
							"raw": "{\n\t\"etid\":\"Test-product-reauthorize\",\n    \"devuuid\" : \"feaed269-4271-4acd-9728-a7dd90ac722b\"\n}\n\n",
							"options": {
								"raw": {
									"language": "json"
								}
							}
						},
						"url": {
							"raw": "{{FLEX_REPO}}/production/device/reauthorize",
							"host": [
								"{{FLEX_REPO}}"
							],
							"path": [
								"production",
								"device",
								"reauthorize"
							]
						},
						"description": "Adds a node"
					},
					"response": []
				},
				{
					"name": "Lookup Device",
					"request": {
						"method": "POST",
						"header": [
							{
								"key": "{{FLEX_AUTHKEY_PARAM}}",
								"value": "{{FLEX_AUTHKEY}}",
								"type": "text"
							}
						],
						"body": {
							"mode": "raw",
							"raw": "{\n\t\"etid\":\"Test-product-Lookup Device\",\n    \"identity\" : {\"key\": \"claimkey\", \"value\":\"ZG2D-8J9Z8A-ED6C-V7BFEQWVR26VYPX1XT\" }\n}",
							"options": {
								"raw": {
									"language": "json"
								}
							}
						},
						"url": {
							"raw": "{{FLEX_REPO}}/production/device/lookup",
							"host": [
								"{{FLEX_REPO}}"
							],
							"path": [
								"production",
								"device",
								"lookup"
							]
						},
						"description": "Adds a node"
					},
					"response": []
				},
				{
					"name": "Lookup Device By DevEui",
					"request": {
						"method": "POST",
						"header": [
							{
								"key": "{{FLEX_AUTHKEY_PARAM}}",
								"value": "{{FLEX_AUTHKEY}}",
								"type": "text"
							}
						],
						"body": {
							"mode": "raw",
							"raw": "{\n\t\"etid\":\"Test-product-Lookup Device\",\n    \"identity\" : {\"key\": \"mfgid\", \"value\":\"CT1000-9C0B-220900158\" }\n}",
							"options": {
								"raw": {
									"language": "json"
								}
							}
						},
						"url": {
							"raw": "{{FLEX_REPO}}/production/device/lookup",
							"host": [
								"{{FLEX_REPO}}"
							],
							"path": [
								"production",
								"device",
								"lookup"
							]
						},
						"description": "Adds a node"
					},
					"response": []
				}
			]
		},
		{
			"name": "Catalog",
			"item": [
				{
					"name": "Catalog List",
					"protocolProfileBehavior": {
						"disabledSystemHeaders": {
							"user-agent": true,
							"connection": true,
							"accept": true,
							"accept-encoding": true
						}
					},
					"request": {
						"method": "POST",
						"header": [
							{
								"key": "{{FLEX_AUTHKEY_PARAM}}",
								"value": "{{FLEX_AUTHKEY}}",
								"type": "text"
							}
						],
						"body": {
							"mode": "raw",
							"raw": "{\n\t\"etid\":\"Test-catalog-list\",\n\t\"limit\":-1,\n\t\"pagingIndex\": -1,\n    \"pagingSize\": 200\n}",
							"options": {
								"raw": {
									"language": "json"
								}
							}
						},
						"url": {
							"raw": "{{FLEX_REPO}}/catalog/list",
							"host": [
								"{{FLEX_REPO}}"
							],
							"path": [
								"catalog",
								"list"
							]
						},
						"description": "Adds a node"
					},
					"response": []
				}
			]
		}
	]
}